<svg xmlns="http://www.w3.org/2000/svg" width="520" height="215" viewBox="0 0 520 215">
  <g id="ic_img_invite" transform="translate(45)">
    <rect id="Rectangle_3" data-name="Rectangle 3" width="520" height="215" rx="40" transform="translate(-45)" fill="#748fee" opacity="0.1"/>
    <g id="Group_3131" data-name="Group 3131" transform="translate(84.004 15.95)">
      <path id="Path_238" data-name="Path 238" d="M345.06,118.724c-27.567-.434-53.821-4.467-78.892-8.88s-49.9-9.312-76.809-11.651c-17.306-1.5-37.1-1.718-51.04,2.49-13.421,4.044-17.757,11.024-20.087,17.521-1.755,4.878-2.786,10.011,2.019,14.577,3.339,3.171,9.26,5.834,13.357,8.872,14.256,10.567,4.178,23.595-11.266,33.912C115.1,180.4,106.69,185.02,101.1,190.173s-8.178,11.053-3.284,16.31c4.847,5.2,16.4,9.119,28.921,11.871,25.424,5.59,55.372,7.188,84.595,8.1,64.67,2.006,129.68,1.136,194.52.26,24-.322,48.1-.647,71.7-2.339,13.11-.933,26.642-2.417,36.162-6,12.08-4.543,15.074-12.235,6.977-17.932-13.579-9.556-51.112-11.931-60.615-22.186-5.222-5.645.141-11.931,7.735-17.168,16.288-11.229,43.586-21.082,45.021-33.92.988-8.815-12.135-17.646-32.426-21.817-21.267-4.371-50.763-3.823-66.446,3.415C397.795,116.229,369.4,119.1,345.06,118.724Z" transform="translate(-179.23 -69.347)" fill="#e7ecfb"/>
      <g id="Group_3050" data-name="Group 3050">
        <g id="Group_3048" data-name="Group 3048" transform="translate(-159.396 3.399)">
          <path id="Path_2803" data-name="Path 2803" d="M794.3,425.48c1.591-.13,3.134-.8,4.736-.742a6.25,6.25,0,0,1,1.113,2.315c-.077,1.431-1.225,2.392-2.127,3.358a36.277,36.277,0,0,0-.189,5.367,3.624,3.624,0,0,0-1.9,3.317c-.465.236-.925.477-1.378.713a16.305,16.305,0,0,0-1.019,3.269,32.762,32.762,0,0,1-2.627,2.138c.524,1.744-.259,3.37-.954,4.931a8.8,8.8,0,0,1-3.876,2.079c-1.32-.106-2.6-.4-3.9-.589-.212-.194-.636-.577-.842-.772-1,.348-2,.654-3,.948-.041-.389-.112-1.172-.153-1.561-.766.536-1.543,1.06-2.321,1.579a11.775,11.775,0,0,1-.76-3.381,5.243,5.243,0,0,1-2.321-1.484c-1.378-.43-3.216-.6-3.47-2.38-.8.177-1.585.371-2.362.577a8.862,8.862,0,0,1-1.249-1.7,1.219,1.219,0,0,1-2.374-.336c1.732-2.345,2.716-5.213,4.919-7.193a7.557,7.557,0,0,1,6.934-2.368c-.012.495-.035,1.484-.047,1.979.094-.336.295-1.019.389-1.361.76.094,1.526.194,2.3.294-.471,1.461-1.019,2.9-1.5,4.359l-.848.707c-.171.636-.336,1.272-.5,1.915.666.029,1.343.065,2.026.106l.73.848c1.708-.259,3.2.884,4.9.683,1.8.006,3.087-1.508,4.73-2.038.648-1.331.3-3.04,1.443-4.118.183-.412.554-1.237.742-1.644-.571.159-1.714.483-2.286.642.224-1.255-.4-2.9.813-3.794-.023-.571-.041-1.143-.053-1.708.819-.677,1.632-1.367,2.451-2.05C791.406,427.094,792.513,425.486,794.3,425.48Z" transform="translate(-568.042 -380.565)" fill="#d2d7e5"/>
          <path id="Path_2808" data-name="Path 2808" d="M674.895,438.176c.389-.73.589-1.856,1.614-1.9,3.046-.177,6.109.542,9.143-.153.059,1.72,1.255,2.981,1.944,4.465a8.571,8.571,0,0,1-2,2.922c-.636.383-1.655.454-1.791,1.325.683,1.314,1.414,2.786,2.9,3.352.059.377.177,1.137.236,1.52-.966,1.125-1.655,2.657-3.175,3.128-1.479.66-3.24.295-4.613,1.208-1.137.866-2.61.43-3.917.5-.277-.348-.825-1.043-1.1-1.4-.813.424-1.62.854-2.433,1.272-.053-.353-.171-1.072-.224-1.426-1.29-.194-2.586-.336-3.864-.471a9.521,9.521,0,0,1,1.113-2.674c-.412-.029-1.243-.088-1.661-.124a11.394,11.394,0,0,0,2.981-5.278c1.508-.495,2.845-2.026,4.477-1.773.124.177.371.536.489.713.247-.395.5-.778.76-1.161-.1-.094-.306-.283-.412-.377-.094-.383-.283-1.155-.377-1.543l-1.561-.613C673.905,439.183,674.394,438.677,674.895,438.176Z" transform="translate(-533.484 -374.243)" fill="#d2d7e5"/>
          <path id="Path_2810" data-name="Path 2810" d="M609.964,437.536c1.467-.212,2.951-.336,4.406-.66a5.478,5.478,0,0,0,3.894.13c.106.465.218.931.33,1.4.931-2.044,2.963-.006,4.424.342.954-.177,1.909-.336,2.875-.507,1.544-1.632,4.141-.825,6.091-1.7a8.278,8.278,0,0,0,2.374,1.09c-.218.931-.442,1.861-.648,2.8.937.377,2.109.624,2.215,1.856.383-.006,1.143-.029,1.526-.035.318.2.96.607,1.284.813a6.452,6.452,0,0,1-.825,4.035c.518-.059,1.567-.171,2.085-.224.253,2.639-1.791,4.719-3.44,6.521-.147.224-.442.677-.589.9a3.268,3.268,0,0,1,2.345-1.272c.177,1.213.842,1.738,2.026,1.255,1.4,2.209,1.349,5.514-1.031,7,.53.047,1.591.153,2.121.2-.919,1.667-1.42,3.688-3.081,4.8-2.239,1.561-3.77,4.076-6.4,5.048-.353.389-.7.783-1.049,1.178-.065.324-.189.966-.253,1.29-1.219.683-2.415,1.408-3.629,2.1-.065-.33-.188-.978-.253-1.308-.642.412-1.284.819-1.926,1.231-1.543-.9-2.545-2.468-4.124-3.293.041-.312.118-.931.159-1.243-.925.053-1.82-.035-2.2-1.025-.518.183-1.031.371-1.543.571-.029-.725-.053-1.443-.059-2.156-.424.2-.848.389-1.278.571a4.724,4.724,0,0,0-1.809-2.38c-.365-.613-.719-1.225-1.066-1.832-.554.194-1.1.389-1.643.589.029-.365.088-1.107.118-1.473,1.031-.33,1.832-.925,1.779-2.121-.566.124-1.691.383-2.256.507-.784-.907-1.555-1.814-2.345-2.71.006-.194.029-.589.035-.784a11.28,11.28,0,0,0,1.149-2.462c-.548.071-1.632.218-2.174.289.236-.76.489-1.514.742-2.268.047-.495.135-1.479.177-1.973l-.772-1.219c.047-.406.147-1.214.2-1.62L605.84,450c.076-1.231.165-2.451.265-3.67l1.408-.377c.012-.312.035-.943.047-1.255-.395-.047-1.178-.147-1.573-.2.177-.265.524-.8.7-1.06A39.867,39.867,0,0,1,608,439.427a18.643,18.643,0,0,0,1.968-1.891m13.791,14.332-.683.943c-1.113-.035-2.233-.088-3.334-.135.006-.218.024-.654.029-.872-.271,0-.807,0-1.078-.006-.636.465-1.278.913-1.92,1.361a6.421,6.421,0,0,1-1.967,3.682c.395-.082,1.19-.242,1.585-.318.224,1.178.454,2.362.648,3.552,1.06-.306,2.121-.624,3.181-.937l.094.943c1.013.147,2.032.306,3.051.477a21.773,21.773,0,0,0,1.137,2.474,26.187,26.187,0,0,0,2.816.189c-.188.554-.371,1.107-.548,1.667.7,0,1.408,0,2.115.006.041.406.118,1.219.159,1.626.742.212,1.49.442,2.239.672.124-.418.259-.836.395-1.249-.448-.029-1.349-.082-1.8-.112q-.071-1.211-.124-2.4c.365-.583.736-1.166,1.1-1.75-.548.053-1.649.171-2.2.23a30.5,30.5,0,0,1,.4-3.747c1.09-1.779,2.887-2.963,4.43-4.312l-1.867-.212c-.059-.454-.171-1.367-.224-1.82l-1.773-.283a5.78,5.78,0,0,1,.854-2.115c-.931-.053-1.862-.165-2.786-.194C626.3,449.989,625.191,451.173,623.754,451.868Z" transform="translate(-497.328 -404.415)" fill="#d2d7e5"/>
          <path id="Path_2814" data-name="Path 2814" d="M705.927,440.625c3.063-.566,6.309.619,9.243-.7.707.13,1.426.265,2.15.406.065.295.2.89.265,1.184.9.224,1.785.483,2.68.766.006.33.024.99.029,1.32a2.566,2.566,0,0,1,.083,3.788c-.006.33-.012.99-.018,1.32a25.957,25.957,0,0,0-2.2,1.555c-.76.377-1.526.742-2.292,1.1-.589.925-1.166,1.85-1.726,2.786.919.206,1.838.46,2.757.719a43.854,43.854,0,0,1-1.384,4.6c-1.119.271-2.238.536-3.358.783-.083.183-.247.554-.33.742a15.728,15.728,0,0,1-6.981,1.119c-1.019-.141-1.3-1.343-1.867-2.032-.613.406-1.225.813-1.838,1.214-.837-1.626-2.5-2.009-4.2-1.968a3.823,3.823,0,0,1,1.267-2.5c-.371-.088-1.119-.271-1.49-.359,1.007-1.3,2.056-2.645,2.144-4.371a6.348,6.348,0,0,1,4.565-2.038l-.041,1.267c1.555-.377,4.082.406,4.459-1.744-.672.006-2.009.012-2.674.018a3.526,3.526,0,0,1,1.084-2.551c-.418-.047-1.243-.141-1.655-.194q.256-.707.53-1.414c-.436-.471-.866-.943-1.284-1.414C704.561,442.911,705.268,441.78,705.927,440.625Z" transform="translate(-540.672 -386.809)" fill="#d2d7e5"/>
          <path id="Path_2817" data-name="Path 2817" d="M827.5,443.9q1.1-.318,2.227-.6c.7.2,1.408.395,2.121.595,1.378,2.162,4.418,1.378,6.592,1.567a6.967,6.967,0,0,0,2.221,1.237c-.33.583-.63,1.184-.931,1.779,1.455,1.255.589,3.476,1.284,5.131.424.289.854.583,1.3.878.024.318.071.948.094,1.261-1.237,1.514-.077,3.2.047,4.86-.436.389-.884.76-1.337,1.119-.383,1.355-.748,2.716-1.172,4.059a64.525,64.525,0,0,0-6.109,4.777c.094.954-.3,2.28.884,2.7-1.025,1.426-1.32,3.705-3.3,4.141a16.93,16.93,0,0,1-4.5.035c-.165-1.066-.365-2.121-.613-3.163-1.019-.147-2.015-.3-3.016-.471-.053-.43-.159-1.278-.212-1.7-1.4-.041-3.2.412-3.688-1.337-.354,0-1.06-.006-1.414-.006a20.288,20.288,0,0,0-1.243-2.51c.342-.383.683-.76,1.037-1.137l-1.614-.4c.4-.672.813-1.343,1.225-2.015-.112-.23-.348-.689-.465-.919a9.729,9.729,0,0,0,1.1-4.754,9.462,9.462,0,0,1,4.076-1.95c-.012-.365-.041-1.107-.059-1.479a25.762,25.762,0,0,0,1.484-2.822l-2.368.188c.324-.483.66-.96,1-1.426.99-3.087,3.4-5.2,5.349-7.64m.324,11.788c-1.915.442-4.041.277-5.7,1.479,2.209.259,1.273,2.1,1,3.493.424-.059,1.267-.183,1.685-.247.66.954,1.378,1.873,2.1,2.786,1.031-.306,2.056-.619,3.087-.937.571-.418,1.166-.819,1.785-1.2.395-1.072.807-2.138,1.19-3.216.43-.683.854-1.373,1.3-2.05-1.573.194-2.185-1.6-3.57-1.8C829.681,454.481,828.827,455.223,827.82,455.689Z" transform="translate(-589.747 -388.193)" fill="#d2d7e5"/>
          <path id="Path_2819" data-name="Path 2819" d="M867.91,448.134a5.451,5.451,0,0,1,5.991-2.368,13.883,13.883,0,0,0,5.814,2.551c.018.241.047.725.059.966.071-.247.206-.73.277-.978,3.052-1.355,6.068-3.4,9.584-2.816.171.76.348,1.52.536,2.292a11.913,11.913,0,0,1,2.716,1.443c-.006.8.012,1.614.047,2.421-.383.454-.754.913-1.119,1.378.365.513.736,1.025,1.119,1.549-1.343.654-.913,1.95-.571,3.069.371.1,1.113.3,1.485.406-.006,2.038-1.761,3.37-3.54,3.923-.418.365-.807.742-1.214,1.119.495-.3,1-.589,1.514-.872.565,1.184,1.909,1.331,3,1.738.389.436.778.878,1.178,1.32-.389,1.237-.789,2.474-1.125,3.729l1.314-.082a3.834,3.834,0,0,1-1.231,2.085c.365-.112,1.09-.342,1.449-.454a27.822,27.822,0,0,0-.006,5.426c-.289.147-.854.436-1.137.583q-.928.946-1.944,1.8a40.728,40.728,0,0,1-1.408,3.97c-2,1.9-4.872,1.626-7.393,1.479-.141-.218-.424-.642-.566-.86-.33.177-.99.524-1.32.7q-1.016-.327-2.015-.636-.5-.636-.99-1.255c-.925.065-1.832.135-2.739.194.077-.677.13-1.355.165-2.032a19.963,19.963,0,0,0-2.869-1.767l1.1-1.19c-.277-.348-.831-1.049-1.1-1.4.283-.094.86-.277,1.143-.371-.271-.059-.825-.188-1.1-.253.071-.465.212-1.39.283-1.856,2.062-.972,4.065-2.221,6.415-2.321-.006.33-.024,1-.029,1.331a2.614,2.614,0,0,1,1.449-1.2,18.3,18.3,0,0,1,.224-3.063,12.543,12.543,0,0,1,4.972-4.571c.024-.837.047-1.661.094-2.486-.907-.029-1.8-.059-2.686-.094.018-.383.065-1.149.088-1.532-.719-.554-1.443-1.107-2.144-1.649.33-.23.984-.7,1.314-.925-.153-.212-.471-.63-.63-.837-1.3.654-2.657,1.184-4.006,1.708-1.161.848-2.627.931-3.965,1.29.094,1,.194,2,.295,3,.153.383.471,1.143.63,1.52.324-.024.972-.065,1.3-.088a8.112,8.112,0,0,1-2.745,5.526c-1.355.165-2.7.312-4.053.454-.041-.383-.13-1.155-.171-1.543-.412.159-.819.33-1.214.5-.283-.189-.854-.56-1.137-.748.03-.725.071-1.449.124-2.168-.53.053-1.591.153-2.121.206-.035-.984-.024-1.973-.141-2.945a9.276,9.276,0,0,0-2.1-.63c.642-2.769,1.225-6.109,3.976-7.576C867.515,452.216,866.626,449.942,867.91,448.134Z" transform="translate(-609.018 -389.051)" fill="#d2d7e5"/>
          <path id="Path_2830" data-name="Path 2830" d="M735.976,466.1c2.227-2.533,5.82-3.1,9.031-2.568a5,5,0,0,0,3.688,2.78c-.106,1.408-.177,2.822-.371,4.23a24.743,24.743,0,0,0-2.115,1.8,5.578,5.578,0,0,1-4.53.53c-.206-2.28-2.957-.713-4.43-1.037-.118.236-.348.707-.465.943a2.469,2.469,0,0,1,.913,1.638,3.7,3.7,0,0,1,2.144,1.237l1.325.259c-.083,1.5-.083,3.01-.118,4.512-.548.153-1.09.306-1.632.471.507.088,1.52.259,2.026.348-.306.813-.607,1.638-.943,2.445,0,1.384.035,2.775.088,4.159-.754-.147-1.5-.283-2.244-.418-.029-1.826,1.567-3.764.206-5.384-1.349,1.2-3.511,2.1-4.972.548-.837-.613-1.685-1.2-2.521-1.791.377-.253,1.125-.754,1.5-1.007-.831-.094-1.655-.194-2.48-.289.265-1.414.571-2.816.86-4.218-.348-.112-1.049-.324-1.4-.436.106-.336.318-1.007.424-1.349-.283-.112-.848-.342-1.131-.459.295-.495.6-1,.9-1.49,2.115-1.137,4.548-.872,6.863-.854A7.349,7.349,0,0,1,735.976,466.1Z" transform="translate(-553.866 -396.431)" fill="#d2d7e5"/>
          <path id="Path_2837" data-name="Path 2837" d="M758.817,472.974a20.964,20.964,0,0,0,3.517-2.044c1.632.265,3.252.6,4.9.854.065.395.194,1.2.259,1.6.654.336,1.314.689,1.973,1.049.194-.141.583-.424.778-.56.7,2.18,2.722,3.635,3.417,5.873-.424,1.685-1.661,3.44-.407,5.107-1.691,2.026-4.33,2.515-6.692,3.328.035.719.082,1.443.124,2.168q-1.131.627-2.215,1.308a29.259,29.259,0,0,1-3.546,1.084c-.112-.842-.218-1.685-.306-2.521l-2.138.071q0,1.034.018,2.085c-1.331.395-2.834,1.449-4.006.141-1.119.012-2.233.053-3.34.094-.023-.831-.041-1.661-.047-2.48.2.018.613.065.819.082a16.348,16.348,0,0,1,.477-4.383c1.131.059,2.274.135,3.417.224.99-.642,2-1.261,2.987-1.92.56-.66,1.143-1.308,1.726-1.956a21.032,21.032,0,0,1,2.957-2.881,21.111,21.111,0,0,1-4.383.884c-.041-1.39.66-3.322-.954-4.1.294-.495.589-.984.9-1.467C758.988,474.205,758.876,473.381,758.817,472.974Z" transform="translate(-563.017 -399.547)" fill="#d2d7e5"/>
          <path id="Path_2844" data-name="Path 2844" d="M692.861,486.7a4.039,4.039,0,0,1,2.309-1.19c.006.43.018,1.29.024,1.72.984.094,2.08.147,2.1,1.414.053-.242.171-.725.224-.966.913-.224,1.826-.448,2.745-.66.135.648.271,1.308.418,1.968q1.175-.1,2.368-.177c.024.353.071,1.06.094,1.408,2.445-.9,3.4,2.433,3.758,4.235-.9.736-1.779,1.5-2.669,2.244.053,2.8-1.585,5.149-3.476,7.051-.719,1.055-1.479,2.085-2.244,3.11a24.147,24.147,0,0,1-8.459.077,76.618,76.618,0,0,0-7.717.23c.024-.76.059-1.514.1-2.262-.4.024-1.19.077-1.585.1a4.03,4.03,0,0,1,1.4-2.462,6.088,6.088,0,0,1,2.692-2.633c2.627-1.013,5.225-2.1,7.876-3.063-.289-.672-.571-1.343-.842-2.009q-1.643-.283-3.281-.542c-.006-.406-.018-1.214-.018-1.614.253.047.76.141,1.013.194-1.19-1.007-1.06-2.645-1.172-4.047.006-.978,1.1-1.414,1.649-2.085C691.059,486.729,691.96,486.718,692.861,486.7Z" transform="translate(-534.15 -405.538)" fill="#d2d7e5"/>
          <path id="Path_2848" data-name="Path 2848" d="M789.592,490.131c2.309-.548,4.241-2.221,6.7-2.191.041.789.088,1.579.141,2.374.6-.083,1.785-.253,2.38-.336-.153.495-.471,1.479-.624,1.973q.839,1,1.7,2c.012.495.035,1.479.047,1.968.495-.141,1.5-.418,1.991-.56-.018.336-.053,1.013-.071,1.349l2.074-.177c-.012.524-.035,1.579-.047,2.109.489.047,1.479.147,1.968.2-.071.318-.224.943-.3,1.261-.471.565-.937,1.143-1.378,1.726a8.287,8.287,0,0,1-5.844,1.143,10.79,10.79,0,0,1-1.92,1.155,3.188,3.188,0,0,0-2.462-2.35c.189-.395.383-.783.589-1.172-.642-1.037-1.219-2.115-1.761-3.2a19.655,19.655,0,0,0-4.018,2.551c-2.839,1.172.071,4.336-1.437,6.415,1.838.619,3.529-.954,5.425-.672.059.454.171,1.361.23,1.814a11.958,11.958,0,0,1,4.8-2.492q.857.513,1.732,1.025c.194.365.6,1.1.789,1.467-.33.212-1,.636-1.325.854.035.907.071,1.82.118,2.739-.866.613-1.7,1.249-2.545,1.879l-.495,1.249c-1.532,1.755-2.356,4.194-4.406,5.455a1.772,1.772,0,0,1-2.545-.778c-.754-.059-1.5-.106-2.233-.159.318-.807.648-1.6,1-2.392-.083-.253-.253-.76-.342-1.013a12.029,12.029,0,0,1-2.327-1.508l-1.231-1.066c-.625.318-1.243.636-1.85.96-2.068-.548-3.888-2.168-3.37-4.506-.471-.065-1.414-.206-1.885-.271a4.062,4.062,0,0,1,1.532-2.05,21.693,21.693,0,0,1,1.137-3.552c-.006-.831-.029-1.661-.035-2.48,1.043-1.1,2.115-2.168,3.087-3.334.289-.165.878-.489,1.166-.654-.018-.406-.065-1.208-.082-1.614.177-.283.53-.86.707-1.143.3-.118.9-.348,1.19-.465C786.705,492.317,787.748,490.585,789.592,490.131Z" transform="translate(-573.598 -406.536)" fill="#d2d7e5"/>
          <path id="Path_2852" data-name="Path 2852" d="M665.979,493.52c2.221-.919,4.589-1.4,6.827-2.28a11.626,11.626,0,0,1,1.52,1.237,21.289,21.289,0,0,0,4.783.029c.259.748-.088,1.243-1.055,1.479.56.577,1.108,1.143,1.638,1.767-.389.6-1.243.948-1.284,1.732-.242,3.122-3.735,6.073-6.833,4.448-.642.094-1.284.183-1.915.277.318-2.533-2.751-1.19-4.171-1.626.135-.725.289-1.431.436-2.144A16.988,16.988,0,0,1,665.979,493.52Z" transform="translate(-527.839 -407.892)" fill="#d2d7e5"/>
          <path id="Path_2854" data-name="Path 2854" d="M593.414,497.5c2.021-1.072,4.548-.778,6.309-2.415.654.907,1.791.954,2.78,1.237-.006,1.1-.006,2.2.018,3.311a17.191,17.191,0,0,1-5.561,5.054c-3.24,1.2-4.63,5.072-7.953,5.967-1.75-1.049-2.816-2.8-3.917-4.448a35.262,35.262,0,0,1,3.375-4.495c-.059-.442-.171-1.32-.23-1.761A7.941,7.941,0,0,1,593.414,497.5Z" transform="translate(-466.801 -413.47)" fill="#d2d7e5"/>
          <path id="Path_2921" data-name="Path 2921" d="M593.414,497.5c2.021-1.072,4.548-.778,6.309-2.415.654.907,1.791.954,2.78,1.237-.006,1.1-.006,2.2.018,3.311a17.191,17.191,0,0,1-5.561,5.054c-3.24,1.2-4.63,5.072-7.953,5.967-1.75-1.049-2.816-2.8-3.917-4.448a35.262,35.262,0,0,1,3.375-4.495c-.059-.442-.171-1.32-.23-1.761A7.941,7.941,0,0,1,593.414,497.5Z" transform="translate(-496.801 -380.47)" fill="#d2d7e5"/>
          <path id="Path_2859" data-name="Path 2859" d="M597.825,505.732c1.814-1.508,3.876-2.8,6.35-2.468a27.35,27.35,0,0,1,.937,3.741c-1.443,1.019-1.243,2.928-.919,4.442-.807,3.081-.8,6.333-2.3,9.219q-.689.442-1.379.9c-.041.725-.077,1.455-.112,2.191-.153.253-.465.766-.618,1.025-.33.548-.666,1.1-1,1.649l.725.512c.029.236.1.707.135.943a13.453,13.453,0,0,1-4.677,2.545c-.5-.342-1-.672-1.484-1a22.116,22.116,0,0,1-5.337,1.172c-.719-2.651-3.788-2.38-5.549-3.876-.725.082-1.437.183-2.15.283-1.649-1-3.635-1.037-5.372-1.8a12.4,12.4,0,0,1,3.929-7.77c.053-.336.153-1,.2-1.331a12.009,12.009,0,0,1,7.057-.672c-.23.253-.683.748-.913,1a4.888,4.888,0,0,1-.943,4.106c.412.018,1.243.047,1.661.059.029.442.088,1.32.118,1.755,1.979-.194,3.988-.006,5.967-.295,1.644-.619,2.887-1.92,4.312-2.9a18.517,18.517,0,0,0,.189-4.265c-.571-1.508-2.1-2.739-1.426-4.495.289-.165.866-.5,1.155-.672A30.109,30.109,0,0,0,597.825,505.732Z" transform="translate(-429.688 -475.812)" fill="#d2d7e5"/>
          <path id="Path_2865" data-name="Path 2865" d="M729.98,512.445c1.72-1.384,4.006-1.108,6.074-1.155q.256.91.53,1.838c.595.218,1.2.442,1.808.666,1.331-.954,2.7-.035,3.882.689-.141.312-.418.937-.56,1.249a28.537,28.537,0,0,1,3.758-.094c-.029.289-.094.866-.124,1.149.336.035,1,.1,1.337.13a33.012,33.012,0,0,1-3.4,3.387,23.823,23.823,0,0,1-8.394.966c-.253.56-.5,1.125-.748,1.7.907.006,1.826.018,2.745.041a15.034,15.034,0,0,1-2.309,3.14l2.91-.353c-.465,2.133-1.9,3.817-3.3,5.408-.471-.377-.937-.754-1.39-1.125-.99.065-1.973.141-2.945.2-.277-.642-.518-1.249-.783-1.873l.029.825c-.742.024-1.473.059-2.209.094.242-1.031.5-2.062.748-3.093a49.971,49.971,0,0,1-5.39-.513c-.271-.277-.819-.819-1.09-1.1.294-.654.6-1.3.913-1.95-.141-.248-.43-.748-.571-1a50.258,50.258,0,0,1,5.125-5.078C727.824,515.278,728.307,513.34,729.98,512.445Z" transform="translate(-550.71 -416.131)" fill="#d2d7e5"/>
          <path id="Path_2867" data-name="Path 2867" d="M834.115,513.238a16.349,16.349,0,0,1,4.836-1.378c.931.1,1.437,1.031,2.121,1.573a17.61,17.61,0,0,1,4.831.948,8.131,8.131,0,0,1-.053,5l2.068.471a10.512,10.512,0,0,1-2,1.614c-.089.306-.259.931-.348,1.243-.247.153-.736.471-.984.624-1.537,2.51-3.788,5.054-6.922,5.266-4.206-.124-7.057,4.984-11.446,3.588a13.835,13.835,0,0,1-.831-4.076c-1.944-.406-.565-2.368-.448-3.605.312-.159.937-.477,1.249-.642.8-2.356-.106-5.048,1.437-7.2a44.119,44.119,0,0,1,5.508-4.159C833.384,512.685,833.873,513.056,834.115,513.238Z" transform="translate(-593.12 -416.366)" fill="#d2d7e5"/>
          <path id="Path_2869" data-name="Path 2869" d="M873.187,515.919a14.368,14.368,0,0,1,2.8-.2,19.058,19.058,0,0,0,8.3,1.926c-.247.9-.489,1.791-.742,2.686.9.035,1.814.065,2.733.106-.047,2.127-1.7,3.635-2.239,5.608-1.284,1-2.881,1.75-3.635,3.275-.448.265-.884.53-1.314.8-.283.513-.554,1.019-.819,1.538.023.436.077,1.308.1,1.744a2.394,2.394,0,0,0-.171,3.629,13.286,13.286,0,0,1-4.424,4.724c-1.785.059-3.576.147-5.361.1.183-.677.365-1.343.56-2.009-.86.2-1.714.418-2.557.636-.218-1.084-.518-2.144-.825-3.2-.854.071-1.7.141-2.545.218.177-.571.359-1.143.554-1.7-.183-.13-.542-.389-.725-.518-.294-.636-.589-1.267-.878-1.891.43-1.2.913-2.368,1.4-3.546a24.034,24.034,0,0,0,5.29-3.611c.029-.937.053-1.867.012-2.8.053-.177.165-.524.218-.7C867.331,519.659,871.007,517.386,873.187,515.919Z" transform="translate(-608.587 -417.938)" fill="#d2d7e5"/>
          <path id="Path_2873" data-name="Path 2873" d="M634.049,521.66c1.808-.365,3.652-.577,5.449-1.06.524.565,1.049,1.149,1.567,1.738,1.526.006,3.052-.012,4.589-.065.018.483.059,1.455.077,1.938,1.037-.471,2.056-1,3.1-1.461,1.708.6,3.54.336,5.314.253a7.344,7.344,0,0,1,5.785,1.284c-.047.483-.141,1.461-.189,1.95.607.218,1.225.442,1.844.666a5.613,5.613,0,0,1-.842,3.44c.931-.212,1.867-.412,2.81-.589a8.438,8.438,0,0,1-1.6,3.476c.347.1,1.031.306,1.378.406.471,2.074-1.614,3.287-2.781,4.642-2.109.259-4.177.766-6.262,1.137.295-.889.618-1.767.948-2.639a5.455,5.455,0,0,1-3.523.654c1.938-1.172.124-2.8-.742-3.935-1.043-.082-2.08-.177-3.11-.259.012-.289.023-.866.035-1.149-.077.265-.23.807-.306,1.078a10.3,10.3,0,0,1-4.866.035c-1.761-1.043-3.576.383-5.225,1-.966,1.4-2.769.831-4.177.8-.012-.377-.041-1.119-.059-1.49-1.2-.053-2.392-.147-3.576-.218a77.531,77.531,0,0,1,.377-8.018C631.44,524.129,632.518,522.609,634.049,521.66Z" transform="translate(-513.128 -419.957)" fill="#d2d7e5"/>
          <path id="Path_2885" data-name="Path 2885" d="M754,530.362c1.909-1.585,4.459-1.808,6.733-2.592.336,1.084.106,2.521,1.013,3.352.772.106,1.555.171,2.345.2.359.565.719,1.137,1.09,1.714-.56.595-1.113,1.2-1.667,1.8.312-.059.937-.171,1.243-.23a7.714,7.714,0,0,1-2.021,3.311,49.482,49.482,0,0,1-8.2.171c-1.461-.884-2.922-2.6-1.632-4.253a24.057,24.057,0,0,1-.407-2.386C752.98,531.063,753.48,530.7,754,530.362Z" transform="translate(-563.553 -422.903)" fill="#d2d7e5"/>
          <path id="Path_2922" data-name="Path 2922" d="M754,530.362c1.909-1.585,4.459-1.808,6.733-2.592.336,1.084.106,2.521,1.013,3.352.772.106,1.555.171,2.345.2.359.565.719,1.137,1.09,1.714-.56.595-1.113,1.2-1.667,1.8.312-.059.937-.171,1.243-.23a7.714,7.714,0,0,1-2.021,3.311,49.482,49.482,0,0,1-8.2.171c-1.461-.884-2.922-2.6-1.632-4.253a24.057,24.057,0,0,1-.407-2.386C752.98,531.063,753.48,530.7,754,530.362Z" transform="translate(-545.553 -389.903)" fill="#d2d7e5"/>
          <path id="Path_2923" data-name="Path 2923" d="M754,530.362c1.909-1.585,4.459-1.808,6.733-2.592.336,1.084.106,2.521,1.013,3.352.772.106,1.555.171,2.345.2.359.565.719,1.137,1.09,1.714-.56.595-1.113,1.2-1.667,1.8.312-.059.937-.171,1.243-.23a7.714,7.714,0,0,1-2.021,3.311,49.482,49.482,0,0,1-8.2.171c-1.461-.884-2.922-2.6-1.632-4.253a24.057,24.057,0,0,1-.407-2.386C752.98,531.063,753.48,530.7,754,530.362Z" transform="translate(-481.553 -404.903)" fill="#d2d7e5"/>
          <path id="Path_2891" data-name="Path 2891" d="M696.852,544.133c1.131-.571,2.244-1.166,3.4-1.673.359.6.725,1.208,1.09,1.814.907-.165,1.82-.318,2.733-.471-.065.489-.2,1.467-.271,1.956.412.024,1.231.059,1.644.082l.589.99a12.353,12.353,0,0,0-.66,4.147c.607-.006,1.832-.006,2.445-.012a23.468,23.468,0,0,1-4.206,5.125,3.843,3.843,0,0,1-3.564.4c-.247,2.38,2.268,3.44,3,5.49a13.452,13.452,0,0,1,2.58-.183c.336,1.019.7,2.032,1.066,3.052.483-.035,1.449-.112,1.932-.147,1.219-.607,2.462-1.172,3.711-1.72-.065-.919-.118-1.832-.165-2.739-.277-.66-.542-1.32-.789-1.973.465-.625.937-1.249,1.4-1.873-.89-.071-1.773-.136-2.657-.189-.318-2-.106-4.053-.324-6.068.566-1.378,1.378-3.452,3.211-2.451,1.113-.183,2.239-.377,3.358-.566a5.423,5.423,0,0,0,2.292.483c-.571,2.009,1.691.99,2.321,2.3.218-.171.66-.512.884-.683.124.389.383,1.172.507,1.561l2-.283c1.384.306,1.814,1.814,2.48,2.875.518-.059,1.543-.183,2.056-.242-.371.677-.754,1.355-1.137,2.032-.018.412-.047,1.237-.065,1.649-1.373,1.231-2.633,2.686-4.389,3.393-.065.3-.194.913-.253,1.214-.353.477-.689.96-1.019,1.449,1.538.73,1.349,2.256.742,3.57.094.224.277.666.371.89a21.792,21.792,0,0,0-2.286,2.91c-1.2.613-2.392,1.214-3.552,1.891a14.011,14.011,0,0,0-4.7.837c-.094-.465-.283-1.384-.377-1.844-.124.295-.365.884-.489,1.178-1.066-.377-2.115-.789-3.169-1.178-1.219,1.644-3.028.436-4.595.106-2.321-.354-3.688-3.258-6.28-2.268a30.425,30.425,0,0,1-4.542-4.118c-.071-.312-.224-.931-.295-1.237a32.107,32.107,0,0,0-3.558-2.2c-.077-.736-.153-1.467-.236-2.191.212-.53.436-1.054.66-1.573a3.168,3.168,0,0,1-.082-2.256,15.781,15.781,0,0,0,1.938-1.879c1.037-.088,2.08-.177,3.128-.253.583-.666,1.166-1.331,1.767-1.979,0-.348-.006-1.043-.012-1.39-.348-.106-1.043-.312-1.39-.418-.077-.619-.147-1.231-.212-1.844.56-.542,1.125-1.072,1.708-1.6C696.681,545.4,696.764,544.763,696.852,544.133Z" transform="translate(-537.54 -428.939)" fill="#d2d7e5"/>
          <path id="Path_2895" data-name="Path 2895" d="M776.518,545.737q1.308-.548,2.621-1.107c.619.3,1.255.607,1.891.907,1.426-.059,2.857-.006,4.289.065-.13.448-.247.9-.359,1.349.6.442,1.214.9,1.82,1.367.465-.041,1.4-.124,1.873-.159.683.412,1.373.825,2.074,1.243-.212.477-.63,1.426-.837,1.9,1.6,1.5-.636,3.67.253,5.514-.7.619-1.4,1.237-2.062,1.9-1.178.448-2.362.884-3.558,1.261-.654-.948-1.808-.884-2.8-1-1.013,1.455-2.527,2.828-4.43,2.627a6.617,6.617,0,0,0-3.723,1.019c-.189-.636-.371-1.272-.554-1.9-.654.2-1.29.412-1.926.63-1.255-1.632-3.57-1.92-4.677-3.652-.324-1.243-.389-2.922.831-3.717-.106-.212-.324-.636-.43-.848.477-.736.96-1.473,1.431-2.209.677-.407,1.361-.807,2.044-1.208a8.04,8.04,0,0,1,4.059-1.6c.094-.183.283-.548.383-.73C775.322,546.839,775.929,546.3,776.518,545.737Z" transform="translate(-569.225 -429.831)" fill="#d2d7e5"/>
          <path id="Path_2900" data-name="Path 2900" d="M620.1,548.18c1.75-.866,3.741-.813,5.643-1.06a7.337,7.337,0,0,0,5.19,2.156c-.4.748-.825,1.478-1.219,2.233.966-.194,1.944-.377,2.928-.548A8.111,8.111,0,0,1,630.7,555.8c-1.16,1.125-1.526,3.228-.13,4.341-.389.571-.76,1.161-1.119,1.755a14.762,14.762,0,0,1,2.321,2.1c-.395.707-.784,1.42-1.172,2.133.913-.283,1.832-.566,2.745-.842a8.3,8.3,0,0,1-1.467,3.753c.713.353,1.649,1.284.7,2-1.343,1.337-3.211,1.915-4.742,2.987-.8.112-1.579.236-2.362.359.218-.719.448-1.432.683-2.144-1.178.33-2.351.689-3.517,1.037a10.316,10.316,0,0,0-.159-4.224c-1.119-.742-2.227-1.5-3.375-2.191-.112-1.031-.206-2.056-.295-3.081l-1.7.024a17.718,17.718,0,0,1,1.031-3.376c-.636-.542-1.261-1.09-1.879-1.626,1.09-2.321.96-4.907,1.172-7.393C618.263,550.283,619.294,549.323,620.1,548.18Z" transform="translate(-507.61 -430.854)" fill="#d2d7e5"/>
          <path id="Path_2906" data-name="Path 2906" d="M660.662,557.505c1.9-1.078,4.124-.954,6.233-1.125.065.854.153,1.726.236,2.586l1.808.259c.047.4.135,1.208.177,1.614-.389.118-1.166.359-1.555.483.035.7.083,1.4.13,2.109-.619.548-1.219,1.113-1.808,1.691a5.026,5.026,0,0,1,.406,3.882c.383.053,1.155.171,1.543.23-.047.342-.147,1.025-.194,1.367a5.55,5.55,0,0,0-2.215,3.629,21.619,21.619,0,0,0-3.664,2.038c-1.985-1.508-4.577-.406-6.645-1.626-1.208.542-3.511,3.163-4.171.8a9.607,9.607,0,0,1-3.423-2.215c.772-1.1,1.543-2.186,2.327-3.275a12.017,12.017,0,0,1,4.624-1.166,7.409,7.409,0,0,1,1.932-1.726,22.409,22.409,0,0,0,1.561-3.181c-.23-.89-.725-1.814-.448-2.739A25.55,25.55,0,0,0,660.662,557.505Z" transform="translate(-520.455 -434.659)" fill="#d2d7e5"/>
        </g>
        <g id="Group_3049" data-name="Group 3049" transform="translate(36.604 3.399)">
          <path id="Path_2803-2" data-name="Path 2803" d="M794.3,425.48c1.591-.13,3.134-.8,4.736-.742a6.25,6.25,0,0,1,1.113,2.315c-.077,1.431-1.225,2.392-2.127,3.358a36.277,36.277,0,0,0-.189,5.367,3.624,3.624,0,0,0-1.9,3.317c-.465.236-.925.477-1.378.713a16.305,16.305,0,0,0-1.019,3.269,32.762,32.762,0,0,1-2.627,2.138c.524,1.744-.259,3.37-.954,4.931a8.8,8.8,0,0,1-3.876,2.079c-1.32-.106-2.6-.4-3.9-.589-.212-.194-.636-.577-.842-.772-1,.348-2,.654-3,.948-.041-.389-.112-1.172-.153-1.561-.766.536-1.543,1.06-2.321,1.579a11.775,11.775,0,0,1-.76-3.381,5.243,5.243,0,0,1-2.321-1.484c-1.378-.43-3.216-.6-3.47-2.38-.8.177-1.585.371-2.362.577a8.862,8.862,0,0,1-1.249-1.7,1.219,1.219,0,0,1-2.374-.336c1.732-2.345,2.716-5.213,4.919-7.193a7.557,7.557,0,0,1,6.934-2.368c-.012.495-.035,1.484-.047,1.979.094-.336.295-1.019.389-1.361.76.094,1.526.194,2.3.294-.471,1.461-1.019,2.9-1.5,4.359l-.848.707c-.171.636-.336,1.272-.5,1.915.666.029,1.343.065,2.026.106l.73.848c1.708-.259,3.2.884,4.9.683,1.8.006,3.087-1.508,4.73-2.038.648-1.331.3-3.04,1.443-4.118.183-.412.554-1.237.742-1.644-.571.159-1.714.483-2.286.642.224-1.255-.4-2.9.813-3.794-.023-.571-.041-1.143-.053-1.708.819-.677,1.632-1.367,2.451-2.05C791.406,427.094,792.513,425.486,794.3,425.48Z" transform="translate(-568.042 -380.565)" fill="#d2d7e5"/>
          <path id="Path_2808-2" data-name="Path 2808" d="M674.895,438.176c.389-.73.589-1.856,1.614-1.9,3.046-.177,6.109.542,9.143-.153.059,1.72,1.255,2.981,1.944,4.465a8.571,8.571,0,0,1-2,2.922c-.636.383-1.655.454-1.791,1.325.683,1.314,1.414,2.786,2.9,3.352.059.377.177,1.137.236,1.52-.966,1.125-1.655,2.657-3.175,3.128-1.479.66-3.24.295-4.613,1.208-1.137.866-2.61.43-3.917.5-.277-.348-.825-1.043-1.1-1.4-.813.424-1.62.854-2.433,1.272-.053-.353-.171-1.072-.224-1.426-1.29-.194-2.586-.336-3.864-.471a9.521,9.521,0,0,1,1.113-2.674c-.412-.029-1.243-.088-1.661-.124a11.394,11.394,0,0,0,2.981-5.278c1.508-.495,2.845-2.026,4.477-1.773.124.177.371.536.489.713.247-.395.5-.778.76-1.161-.1-.094-.306-.283-.412-.377-.094-.383-.283-1.155-.377-1.543l-1.561-.613C673.905,439.183,674.394,438.677,674.895,438.176Z" transform="translate(-528.484 -385.243)" fill="#d2d7e5"/>
          <path id="Path_2810-2" data-name="Path 2810" d="M609.964,437.536c1.467-.212,2.951-.336,4.406-.66a5.478,5.478,0,0,0,3.894.13c.106.465.218.931.33,1.4.931-2.044,2.963-.006,4.424.342.954-.177,1.909-.336,2.875-.507,1.544-1.632,4.141-.825,6.091-1.7a8.278,8.278,0,0,0,2.374,1.09c-.218.931-.442,1.861-.648,2.8.937.377,2.109.624,2.215,1.856.383-.006,1.143-.029,1.526-.035.318.2.96.607,1.284.813a6.452,6.452,0,0,1-.825,4.035c.518-.059,1.567-.171,2.085-.224.253,2.639-1.791,4.719-3.44,6.521-.147.224-.442.677-.589.9a3.268,3.268,0,0,1,2.345-1.272c.177,1.213.842,1.738,2.026,1.255,1.4,2.209,1.349,5.514-1.031,7,.53.047,1.591.153,2.121.2-.919,1.667-1.42,3.688-3.081,4.8-2.239,1.561-3.77,4.076-6.4,5.048-.353.389-.7.783-1.049,1.178-.065.324-.189.966-.253,1.29-1.219.683-2.415,1.408-3.629,2.1-.065-.33-.188-.978-.253-1.308-.642.412-1.284.819-1.926,1.231-1.543-.9-2.545-2.468-4.124-3.293.041-.312.118-.931.159-1.243-.925.053-1.82-.035-2.2-1.025-.518.183-1.031.371-1.543.571-.029-.725-.053-1.443-.059-2.156-.424.2-.848.389-1.278.571a4.724,4.724,0,0,0-1.809-2.38c-.365-.613-.719-1.225-1.066-1.832-.554.194-1.1.389-1.643.589.029-.365.088-1.107.118-1.473,1.031-.33,1.832-.925,1.779-2.121-.566.124-1.691.383-2.256.507-.784-.907-1.555-1.814-2.345-2.71.006-.194.029-.589.035-.784a11.28,11.28,0,0,0,1.149-2.462c-.548.071-1.632.218-2.174.289.236-.76.489-1.514.742-2.268.047-.495.135-1.479.177-1.973l-.772-1.219c.047-.406.147-1.214.2-1.62L605.84,450c.076-1.231.165-2.451.265-3.67l1.408-.377c.012-.312.035-.943.047-1.255-.395-.047-1.178-.147-1.573-.2.177-.265.524-.8.7-1.06A39.867,39.867,0,0,1,608,439.427a18.643,18.643,0,0,0,1.968-1.891m13.791,14.332-.683.943c-1.113-.035-2.233-.088-3.334-.135.006-.218.024-.654.029-.872-.271,0-.807,0-1.078-.006-.636.465-1.278.913-1.92,1.361a6.421,6.421,0,0,1-1.967,3.682c.395-.082,1.19-.242,1.585-.318.224,1.178.454,2.362.648,3.552,1.06-.306,2.121-.624,3.181-.937l.094.943c1.013.147,2.032.306,3.051.477a21.773,21.773,0,0,0,1.137,2.474,26.187,26.187,0,0,0,2.816.189c-.188.554-.371,1.107-.548,1.667.7,0,1.408,0,2.115.006.041.406.118,1.219.159,1.626.742.212,1.49.442,2.239.672.124-.418.259-.836.395-1.249-.448-.029-1.349-.082-1.8-.112q-.071-1.211-.124-2.4c.365-.583.736-1.166,1.1-1.75-.548.053-1.649.171-2.2.23a30.5,30.5,0,0,1,.4-3.747c1.09-1.779,2.887-2.963,4.43-4.312l-1.867-.212c-.059-.454-.171-1.367-.224-1.82l-1.773-.283a5.78,5.78,0,0,1,.854-2.115c-.931-.053-1.862-.165-2.786-.194C626.3,449.989,625.191,451.173,623.754,451.868Z" transform="translate(-503.328 -385.415)" fill="#d2d7e5"/>
          <path id="Path_2814-2" data-name="Path 2814" d="M705.927,440.625c3.063-.566,6.309.619,9.243-.7.707.13,1.426.265,2.15.406.065.295.2.89.265,1.184.9.224,1.785.483,2.68.766.006.33.024.99.029,1.32a2.566,2.566,0,0,1,.083,3.788c-.006.33-.012.99-.018,1.32a25.957,25.957,0,0,0-2.2,1.555c-.76.377-1.526.742-2.292,1.1-.589.925-1.166,1.85-1.726,2.786.919.206,1.838.46,2.757.719a43.854,43.854,0,0,1-1.384,4.6c-1.119.271-2.238.536-3.358.783-.083.183-.247.554-.33.742a15.728,15.728,0,0,1-6.981,1.119c-1.019-.141-1.3-1.343-1.867-2.032-.613.406-1.225.813-1.838,1.214-.837-1.626-2.5-2.009-4.2-1.968a3.823,3.823,0,0,1,1.267-2.5c-.371-.088-1.119-.271-1.49-.359,1.007-1.3,2.056-2.645,2.144-4.371a6.348,6.348,0,0,1,4.565-2.038l-.041,1.267c1.555-.377,4.082.406,4.459-1.744-.672.006-2.009.012-2.674.018a3.526,3.526,0,0,1,1.084-2.551c-.418-.047-1.243-.141-1.655-.194q.256-.707.53-1.414c-.436-.471-.866-.943-1.284-1.414C704.561,442.911,705.268,441.78,705.927,440.625Z" transform="translate(-540.672 -386.809)" fill="#d2d7e5"/>
          <path id="Path_2817-2" data-name="Path 2817" d="M827.5,443.9q1.1-.318,2.227-.6c.7.2,1.408.395,2.121.595,1.378,2.162,4.418,1.378,6.592,1.567a6.967,6.967,0,0,0,2.221,1.237c-.33.583-.63,1.184-.931,1.779,1.455,1.255.589,3.476,1.284,5.131.424.289.854.583,1.3.878.024.318.071.948.094,1.261-1.237,1.514-.077,3.2.047,4.86-.436.389-.884.76-1.337,1.119-.383,1.355-.748,2.716-1.172,4.059a64.525,64.525,0,0,0-6.109,4.777c.094.954-.3,2.28.884,2.7-1.025,1.426-1.32,3.705-3.3,4.141a16.93,16.93,0,0,1-4.5.035c-.165-1.066-.365-2.121-.613-3.163-1.019-.147-2.015-.3-3.016-.471-.053-.43-.159-1.278-.212-1.7-1.4-.041-3.2.412-3.688-1.337-.354,0-1.06-.006-1.414-.006a20.288,20.288,0,0,0-1.243-2.51c.342-.383.683-.76,1.037-1.137l-1.614-.4c.4-.672.813-1.343,1.225-2.015-.112-.23-.348-.689-.465-.919a9.729,9.729,0,0,0,1.1-4.754,9.462,9.462,0,0,1,4.076-1.95c-.012-.365-.041-1.107-.059-1.479a25.762,25.762,0,0,0,1.484-2.822l-2.368.188c.324-.483.66-.96,1-1.426.99-3.087,3.4-5.2,5.349-7.64m.324,11.788c-1.915.442-4.041.277-5.7,1.479,2.209.259,1.273,2.1,1,3.493.424-.059,1.267-.183,1.685-.247.66.954,1.378,1.873,2.1,2.786,1.031-.306,2.056-.619,3.087-.937.571-.418,1.166-.819,1.785-1.2.395-1.072.807-2.138,1.19-3.216.43-.683.854-1.373,1.3-2.05-1.573.194-2.185-1.6-3.57-1.8C829.681,454.481,828.827,455.223,827.82,455.689Z" transform="translate(-589.747 -388.193)" fill="#d2d7e5"/>
          <path id="Path_2830-2" data-name="Path 2830" d="M735.976,466.1c2.227-2.533,5.82-3.1,9.031-2.568a5,5,0,0,0,3.688,2.78c-.106,1.408-.177,2.822-.371,4.23a24.743,24.743,0,0,0-2.115,1.8,5.578,5.578,0,0,1-4.53.53c-.206-2.28-2.957-.713-4.43-1.037-.118.236-.348.707-.465.943a2.469,2.469,0,0,1,.913,1.638,3.7,3.7,0,0,1,2.144,1.237l1.325.259c-.083,1.5-.083,3.01-.118,4.512-.548.153-1.09.306-1.632.471.507.088,1.52.259,2.026.348-.306.813-.607,1.638-.943,2.445,0,1.384.035,2.775.088,4.159-.754-.147-1.5-.283-2.244-.418-.029-1.826,1.567-3.764.206-5.384-1.349,1.2-3.511,2.1-4.972.548-.837-.613-1.685-1.2-2.521-1.791.377-.253,1.125-.754,1.5-1.007-.831-.094-1.655-.194-2.48-.289.265-1.414.571-2.816.86-4.218-.348-.112-1.049-.324-1.4-.436.106-.336.318-1.007.424-1.349-.283-.112-.848-.342-1.131-.459.295-.495.6-1,.9-1.49,2.115-1.137,4.548-.872,6.863-.854A7.349,7.349,0,0,1,735.976,466.1Z" transform="translate(-553.866 -396.431)" fill="#d2d7e5"/>
          <path id="Path_2837-2" data-name="Path 2837" d="M758.817,472.974a20.964,20.964,0,0,0,3.517-2.044c1.632.265,3.252.6,4.9.854.065.395.194,1.2.259,1.6.654.336,1.314.689,1.973,1.049.194-.141.583-.424.778-.56.7,2.18,2.722,3.635,3.417,5.873-.424,1.685-1.661,3.44-.407,5.107-1.691,2.026-4.33,2.515-6.692,3.328.035.719.082,1.443.124,2.168q-1.131.627-2.215,1.308a29.259,29.259,0,0,1-3.546,1.084c-.112-.842-.218-1.685-.306-2.521l-2.138.071q0,1.034.018,2.085c-1.331.395-2.834,1.449-4.006.141-1.119.012-2.233.053-3.34.094-.023-.831-.041-1.661-.047-2.48.2.018.613.065.819.082a16.348,16.348,0,0,1,.477-4.383c1.131.059,2.274.135,3.417.224.99-.642,2-1.261,2.987-1.92.56-.66,1.143-1.308,1.726-1.956a21.032,21.032,0,0,1,2.957-2.881,21.111,21.111,0,0,1-4.383.884c-.041-1.39.66-3.322-.954-4.1.294-.495.589-.984.9-1.467C758.988,474.205,758.876,473.381,758.817,472.974Z" transform="translate(-563.017 -399.547)" fill="#d2d7e5"/>
          <path id="Path_2844-2" data-name="Path 2844" d="M692.861,486.7a4.039,4.039,0,0,1,2.309-1.19c.006.43.018,1.29.024,1.72.984.094,2.08.147,2.1,1.414.053-.242.171-.725.224-.966.913-.224,1.826-.448,2.745-.66.135.648.271,1.308.418,1.968q1.175-.1,2.368-.177c.024.353.071,1.06.094,1.408,2.445-.9,3.4,2.433,3.758,4.235-.9.736-1.779,1.5-2.669,2.244.053,2.8-1.585,5.149-3.476,7.051-.719,1.055-1.479,2.085-2.244,3.11a24.147,24.147,0,0,1-8.459.077,76.618,76.618,0,0,0-7.717.23c.024-.76.059-1.514.1-2.262-.4.024-1.19.077-1.585.1a4.03,4.03,0,0,1,1.4-2.462,6.088,6.088,0,0,1,2.692-2.633c2.627-1.013,5.225-2.1,7.876-3.063-.289-.672-.571-1.343-.842-2.009q-1.643-.283-3.281-.542c-.006-.406-.018-1.214-.018-1.614.253.047.76.141,1.013.194-1.19-1.007-1.06-2.645-1.172-4.047.006-.978,1.1-1.414,1.649-2.085C691.059,486.729,691.96,486.718,692.861,486.7Z" transform="translate(-534.15 -405.538)" fill="#d2d7e5"/>
          <path id="Path_2909" data-name="Path 2909" d="M692.861,486.7a4.039,4.039,0,0,1,2.309-1.19c.006.43.018,1.29.024,1.72.984.094,2.08.147,2.1,1.414.053-.242.171-.725.224-.966.913-.224,1.826-.448,2.745-.66.135.648.271,1.308.418,1.968q1.175-.1,2.368-.177c.024.353.071,1.06.094,1.408,2.445-.9,3.4,2.433,3.758,4.235-.9.736-1.779,1.5-2.669,2.244.053,2.8-1.585,5.149-3.476,7.051-.719,1.055-1.479,2.085-2.244,3.11a24.147,24.147,0,0,1-8.459.077,76.618,76.618,0,0,0-7.717.23c.024-.76.059-1.514.1-2.262-.4.024-1.19.077-1.585.1a4.03,4.03,0,0,1,1.4-2.462,6.088,6.088,0,0,1,2.692-2.633c2.627-1.013,5.225-2.1,7.876-3.063-.289-.672-.571-1.343-.842-2.009q-1.643-.283-3.281-.542c-.006-.406-.018-1.214-.018-1.614.253.047.76.141,1.013.194-1.19-1.007-1.06-2.645-1.172-4.047.006-.978,1.1-1.414,1.649-2.085C691.059,486.729,691.96,486.718,692.861,486.7Z" transform="translate(-535.15 -456.538)" fill="#d2d7e5"/>
          <path id="Path_2913" data-name="Path 2913" d="M692.861,486.7a4.039,4.039,0,0,1,2.309-1.19c.006.43.018,1.29.024,1.72.984.094,2.08.147,2.1,1.414.053-.242.171-.725.224-.966.913-.224,1.826-.448,2.745-.66.135.648.271,1.308.418,1.968q1.175-.1,2.368-.177c.024.353.071,1.06.094,1.408,2.445-.9,3.4,2.433,3.758,4.235-.9.736-1.779,1.5-2.669,2.244.053,2.8-1.585,5.149-3.476,7.051-.719,1.055-1.479,2.085-2.244,3.11a24.147,24.147,0,0,1-8.459.077,76.618,76.618,0,0,0-7.717.23c.024-.76.059-1.514.1-2.262-.4.024-1.19.077-1.585.1a4.03,4.03,0,0,1,1.4-2.462,6.088,6.088,0,0,1,2.692-2.633c2.627-1.013,5.225-2.1,7.876-3.063-.289-.672-.571-1.343-.842-2.009q-1.643-.283-3.281-.542c-.006-.406-.018-1.214-.018-1.614.253.047.76.141,1.013.194-1.19-1.007-1.06-2.645-1.172-4.047.006-.978,1.1-1.414,1.649-2.085C691.059,486.729,691.96,486.718,692.861,486.7Z" transform="translate(-622.15 -464.538)" fill="#d2d7e5"/>
          <path id="Path_2848-2" data-name="Path 2848" d="M789.592,490.131c2.309-.548,4.241-2.221,6.7-2.191.041.789.088,1.579.141,2.374.6-.083,1.785-.253,2.38-.336-.153.495-.471,1.479-.624,1.973q.839,1,1.7,2c.012.495.035,1.479.047,1.968.495-.141,1.5-.418,1.991-.56-.018.336-.053,1.013-.071,1.349l2.074-.177c-.012.524-.035,1.579-.047,2.109.489.047,1.479.147,1.968.2-.071.318-.224.943-.3,1.261-.471.565-.937,1.143-1.378,1.726a8.287,8.287,0,0,1-5.844,1.143,10.79,10.79,0,0,1-1.92,1.155,3.188,3.188,0,0,0-2.462-2.35c.189-.395.383-.783.589-1.172-.642-1.037-1.219-2.115-1.761-3.2a19.655,19.655,0,0,0-4.018,2.551c-2.839,1.172.071,4.336-1.437,6.415,1.838.619,3.529-.954,5.425-.672.059.454.171,1.361.23,1.814a11.958,11.958,0,0,1,4.8-2.492q.857.513,1.732,1.025c.194.365.6,1.1.789,1.467-.33.212-1,.636-1.325.854.035.907.071,1.82.118,2.739-.866.613-1.7,1.249-2.545,1.879l-.495,1.249c-1.532,1.755-2.356,4.194-4.406,5.455a1.772,1.772,0,0,1-2.545-.778c-.754-.059-1.5-.106-2.233-.159.318-.807.648-1.6,1-2.392-.083-.253-.253-.76-.342-1.013a12.029,12.029,0,0,1-2.327-1.508l-1.231-1.066c-.625.318-1.243.636-1.85.96-2.068-.548-3.888-2.168-3.37-4.506-.471-.065-1.414-.206-1.885-.271a4.062,4.062,0,0,1,1.532-2.05,21.693,21.693,0,0,1,1.137-3.552c-.006-.831-.029-1.661-.035-2.48,1.043-1.1,2.115-2.168,3.087-3.334.289-.165.878-.489,1.166-.654-.018-.406-.065-1.208-.082-1.614.177-.283.53-.86.707-1.143.3-.118.9-.348,1.19-.465C786.705,492.317,787.748,490.585,789.592,490.131Z" transform="translate(-573.598 -406.536)" fill="#d2d7e5"/>
          <path id="Path_2852-2" data-name="Path 2852" d="M665.979,493.52c2.221-.919,4.589-1.4,6.827-2.28a11.626,11.626,0,0,1,1.52,1.237,21.289,21.289,0,0,0,4.783.029c.259.748-.088,1.243-1.055,1.479.56.577,1.108,1.143,1.638,1.767-.389.6-1.243.948-1.284,1.732-.242,3.122-3.735,6.073-6.833,4.448-.642.094-1.284.183-1.915.277.318-2.533-2.751-1.19-4.171-1.626.135-.725.289-1.431.436-2.144A16.988,16.988,0,0,1,665.979,493.52Z" transform="translate(-527.839 -407.892)" fill="#d2d7e5"/>
          <path id="Path_2854-2" data-name="Path 2854" d="M593.414,497.5c2.021-1.072,4.548-.778,6.309-2.415.654.907,1.791.954,2.78,1.237-.006,1.1-.006,2.2.018,3.311a17.191,17.191,0,0,1-5.561,5.054c-3.24,1.2-4.63,5.072-7.953,5.967-1.75-1.049-2.816-2.8-3.917-4.448a35.262,35.262,0,0,1,3.375-4.495c-.059-.442-.171-1.32-.23-1.761A7.941,7.941,0,0,1,593.414,497.5Z" transform="translate(-494.801 -409.47)" fill="#d2d7e5"/>
          <path id="Path_2910" data-name="Path 2910" d="M593.414,497.5c2.021-1.072,4.548-.778,6.309-2.415.654.907,1.791.954,2.78,1.237-.006,1.1-.006,2.2.018,3.311a17.191,17.191,0,0,1-5.561,5.054c-3.24,1.2-4.63,5.072-7.953,5.967-1.75-1.049-2.816-2.8-3.917-4.448a35.262,35.262,0,0,1,3.375-4.495c-.059-.442-.171-1.32-.23-1.761A7.941,7.941,0,0,1,593.414,497.5Z" transform="translate(-495.801 -460.47)" fill="#d2d7e5"/>
          <path id="Path_2914" data-name="Path 2914" d="M593.414,497.5c2.021-1.072,4.548-.778,6.309-2.415.654.907,1.791.954,2.78,1.237-.006,1.1-.006,2.2.018,3.311a17.191,17.191,0,0,1-5.561,5.054c-3.24,1.2-4.63,5.072-7.953,5.967-1.75-1.049-2.816-2.8-3.917-4.448a35.262,35.262,0,0,1,3.375-4.495c-.059-.442-.171-1.32-.23-1.761A7.941,7.941,0,0,1,593.414,497.5Z" transform="translate(-593.801 -460.47)" fill="#d2d7e5"/>
          <path id="Path_2924" data-name="Path 2924" d="M593.414,497.5c2.021-1.072,4.548-.778,6.309-2.415.654.907,1.791.954,2.78,1.237-.006,1.1-.006,2.2.018,3.311a17.191,17.191,0,0,1-5.561,5.054c-3.24,1.2-4.63,5.072-7.953,5.967-1.75-1.049-2.816-2.8-3.917-4.448a35.262,35.262,0,0,1,3.375-4.495c-.059-.442-.171-1.32-.23-1.761A7.941,7.941,0,0,1,593.414,497.5Z" transform="translate(-500.801 -361.47)" fill="#d2d7e5"/>
          <path id="Path_2859-2" data-name="Path 2859" d="M597.825,505.732c1.814-1.508,3.876-2.8,6.35-2.468a27.35,27.35,0,0,1,.937,3.741c-1.443,1.019-1.243,2.928-.919,4.442-.807,3.081-.8,6.333-2.3,9.219q-.689.442-1.379.9c-.041.725-.077,1.455-.112,2.191-.153.253-.465.766-.618,1.025-.33.548-.666,1.1-1,1.649l.725.512c.029.236.1.707.135.943a13.453,13.453,0,0,1-4.677,2.545c-.5-.342-1-.672-1.484-1a22.116,22.116,0,0,1-5.337,1.172c-.719-2.651-3.788-2.38-5.549-3.876-.725.082-1.437.183-2.15.283-1.649-1-3.635-1.037-5.372-1.8a12.4,12.4,0,0,1,3.929-7.77c.053-.336.153-1,.2-1.331a12.009,12.009,0,0,1,7.057-.672c-.23.253-.683.748-.913,1a4.888,4.888,0,0,1-.943,4.106c.412.018,1.243.047,1.661.059.029.442.088,1.32.118,1.755,1.979-.194,3.988-.006,5.967-.295,1.644-.619,2.887-1.92,4.312-2.9a18.517,18.517,0,0,0,.189-4.265c-.571-1.508-2.1-2.739-1.426-4.495.289-.165.866-.5,1.155-.672A30.109,30.109,0,0,0,597.825,505.732Z" transform="translate(-490.688 -412.812)" fill="#d2d7e5"/>
          <path id="Path_2865-2" data-name="Path 2865" d="M729.98,512.445c1.72-1.384,4.006-1.108,6.074-1.155q.256.91.53,1.838c.595.218,1.2.442,1.808.666,1.331-.954,2.7-.035,3.882.689-.141.312-.418.937-.56,1.249a28.537,28.537,0,0,1,3.758-.094c-.029.289-.094.866-.124,1.149.336.035,1,.1,1.337.13a33.012,33.012,0,0,1-3.4,3.387,23.823,23.823,0,0,1-8.394.966c-.253.56-.5,1.125-.748,1.7.907.006,1.826.018,2.745.041a15.034,15.034,0,0,1-2.309,3.14l2.91-.353c-.465,2.133-1.9,3.817-3.3,5.408-.471-.377-.937-.754-1.39-1.125-.99.065-1.973.141-2.945.2-.277-.642-.518-1.249-.783-1.873l.029.825c-.742.024-1.473.059-2.209.094.242-1.031.5-2.062.748-3.093a49.971,49.971,0,0,1-5.39-.513c-.271-.277-.819-.819-1.09-1.1.294-.654.6-1.3.913-1.95-.141-.248-.43-.748-.571-1a50.258,50.258,0,0,1,5.125-5.078C727.824,515.278,728.307,513.34,729.98,512.445Z" transform="translate(-550.71 -416.131)" fill="#d2d7e5"/>
          <path id="Path_2919" data-name="Path 2919" d="M729.98,512.445c1.72-1.384,4.006-1.108,6.074-1.155q.256.91.53,1.838c.595.218,1.2.442,1.808.666,1.331-.954,2.7-.035,3.882.689-.141.312-.418.937-.56,1.249a28.537,28.537,0,0,1,3.758-.094c-.029.289-.094.866-.124,1.149.336.035,1,.1,1.337.13a33.012,33.012,0,0,1-3.4,3.387,23.823,23.823,0,0,1-8.394.966c-.253.56-.5,1.125-.748,1.7.907.006,1.826.018,2.745.041a15.034,15.034,0,0,1-2.309,3.14l2.91-.353c-.465,2.133-1.9,3.817-3.3,5.408-.471-.377-.937-.754-1.39-1.125-.99.065-1.973.141-2.945.2-.277-.642-.518-1.249-.783-1.873l.029.825c-.742.024-1.473.059-2.209.094.242-1.031.5-2.062.748-3.093a49.971,49.971,0,0,1-5.39-.513c-.271-.277-.819-.819-1.09-1.1.294-.654.6-1.3.913-1.95-.141-.248-.43-.748-.571-1a50.258,50.258,0,0,1,5.125-5.078C727.824,515.278,728.307,513.34,729.98,512.445Z" transform="translate(-468.71 -469.131)" fill="#d2d7e5"/>
          <path id="Path_2867-2" data-name="Path 2867" d="M834.115,513.238a16.349,16.349,0,0,1,4.836-1.378c.931.1,1.437,1.031,2.121,1.573a17.61,17.61,0,0,1,4.831.948,8.131,8.131,0,0,1-.053,5l2.068.471a10.512,10.512,0,0,1-2,1.614c-.089.306-.259.931-.348,1.243-.247.153-.736.471-.984.624-1.537,2.51-3.788,5.054-6.922,5.266-4.206-.124-7.057,4.984-11.446,3.588a13.835,13.835,0,0,1-.831-4.076c-1.944-.406-.565-2.368-.448-3.605.312-.159.937-.477,1.249-.642.8-2.356-.106-5.048,1.437-7.2a44.119,44.119,0,0,1,5.508-4.159C833.384,512.685,833.873,513.056,834.115,513.238Z" transform="translate(-598.12 -406.366)" fill="#d2d7e5"/>
          <path id="Path_2869-2" data-name="Path 2869" d="M873.187,515.919a14.368,14.368,0,0,1,2.8-.2,19.058,19.058,0,0,0,8.3,1.926c-.247.9-.489,1.791-.742,2.686.9.035,1.814.065,2.733.106-.047,2.127-1.7,3.635-2.239,5.608-1.284,1-2.881,1.75-3.635,3.275-.448.265-.884.53-1.314.8-.283.513-.554,1.019-.819,1.538.023.436.077,1.308.1,1.744a2.394,2.394,0,0,0-.171,3.629,13.286,13.286,0,0,1-4.424,4.724c-1.785.059-3.576.147-5.361.1.183-.677.365-1.343.56-2.009-.86.2-1.714.418-2.557.636-.218-1.084-.518-2.144-.825-3.2-.854.071-1.7.141-2.545.218.177-.571.359-1.143.554-1.7-.183-.13-.542-.389-.725-.518-.294-.636-.589-1.267-.878-1.891.43-1.2.913-2.368,1.4-3.546a24.034,24.034,0,0,0,5.29-3.611c.029-.937.053-1.867.012-2.8.053-.177.165-.524.218-.7C867.331,519.659,871.007,517.386,873.187,515.919Z" transform="translate(-624.587 -393.938)" fill="#d2d7e5"/>
          <path id="Path_2873-2" data-name="Path 2873" d="M634.049,521.66c1.808-.365,3.652-.577,5.449-1.06.524.565,1.049,1.149,1.567,1.738,1.526.006,3.052-.012,4.589-.065.018.483.059,1.455.077,1.938,1.037-.471,2.056-1,3.1-1.461,1.708.6,3.54.336,5.314.253a7.344,7.344,0,0,1,5.785,1.284c-.047.483-.141,1.461-.189,1.95.607.218,1.225.442,1.844.666a5.613,5.613,0,0,1-.842,3.44c.931-.212,1.867-.412,2.81-.589a8.438,8.438,0,0,1-1.6,3.476c.347.1,1.031.306,1.378.406.471,2.074-1.614,3.287-2.781,4.642-2.109.259-4.177.766-6.262,1.137.295-.889.618-1.767.948-2.639a5.455,5.455,0,0,1-3.523.654c1.938-1.172.124-2.8-.742-3.935-1.043-.082-2.08-.177-3.11-.259.012-.289.023-.866.035-1.149-.077.265-.23.807-.306,1.078a10.3,10.3,0,0,1-4.866.035c-1.761-1.043-3.576.383-5.225,1-.966,1.4-2.769.831-4.177.8-.012-.377-.041-1.119-.059-1.49-1.2-.053-2.392-.147-3.576-.218a77.531,77.531,0,0,1,.377-8.018C631.44,524.129,632.518,522.609,634.049,521.66Z" transform="translate(-513.128 -419.957)" fill="#d2d7e5"/>
          <path id="Path_2885-2" data-name="Path 2885" d="M754,530.362c1.909-1.585,4.459-1.808,6.733-2.592.336,1.084.106,2.521,1.013,3.352.772.106,1.555.171,2.345.2.359.565.719,1.137,1.09,1.714-.56.595-1.113,1.2-1.667,1.8.312-.059.937-.171,1.243-.23a7.714,7.714,0,0,1-2.021,3.311,49.482,49.482,0,0,1-8.2.171c-1.461-.884-2.922-2.6-1.632-4.253a24.057,24.057,0,0,1-.407-2.386C752.98,531.063,753.48,530.7,754,530.362Z" transform="translate(-563.553 -422.903)" fill="#d2d7e5"/>
          <path id="Path_2925" data-name="Path 2925" d="M754,530.362c1.909-1.585,4.459-1.808,6.733-2.592.336,1.084.106,2.521,1.013,3.352.772.106,1.555.171,2.345.2.359.565.719,1.137,1.09,1.714-.56.595-1.113,1.2-1.667,1.8.312-.059.937-.171,1.243-.23a7.714,7.714,0,0,1-2.021,3.311,49.482,49.482,0,0,1-8.2.171c-1.461-.884-2.922-2.6-1.632-4.253a24.057,24.057,0,0,1-.407-2.386C752.98,531.063,753.48,530.7,754,530.362Z" transform="translate(-559.553 -391.903)" fill="#d2d7e5"/>
          <path id="Path_2926" data-name="Path 2926" d="M754,530.362c1.909-1.585,4.459-1.808,6.733-2.592.336,1.084.106,2.521,1.013,3.352.772.106,1.555.171,2.345.2.359.565.719,1.137,1.09,1.714-.56.595-1.113,1.2-1.667,1.8.312-.059.937-.171,1.243-.23a7.714,7.714,0,0,1-2.021,3.311,49.482,49.482,0,0,1-8.2.171c-1.461-.884-2.922-2.6-1.632-4.253a24.057,24.057,0,0,1-.407-2.386C752.98,531.063,753.48,530.7,754,530.362Z" transform="translate(-534.553 -394.903)" fill="#d2d7e5"/>
          <path id="Path_2920" data-name="Path 2920" d="M754,530.362c1.909-1.585,4.459-1.808,6.733-2.592.336,1.084.106,2.521,1.013,3.352.772.106,1.555.171,2.345.2.359.565.719,1.137,1.09,1.714-.56.595-1.113,1.2-1.667,1.8.312-.059.937-.171,1.243-.23a7.714,7.714,0,0,1-2.021,3.311,49.482,49.482,0,0,1-8.2.171c-1.461-.884-2.922-2.6-1.632-4.253a24.057,24.057,0,0,1-.407-2.386C752.98,531.063,753.48,530.7,754,530.362Z" transform="translate(-481.553 -475.903)" fill="#d2d7e5"/>
          <path id="Path_2891-2" data-name="Path 2891" d="M696.852,544.133c1.131-.571,2.244-1.166,3.4-1.673.359.6.725,1.208,1.09,1.814.907-.165,1.82-.318,2.733-.471-.065.489-.2,1.467-.271,1.956.412.024,1.231.059,1.644.082l.589.99a12.353,12.353,0,0,0-.66,4.147c.607-.006,1.832-.006,2.445-.012a23.468,23.468,0,0,1-4.206,5.125,3.843,3.843,0,0,1-3.564.4c-.247,2.38,2.268,3.44,3,5.49a13.452,13.452,0,0,1,2.58-.183c.336,1.019.7,2.032,1.066,3.052.483-.035,1.449-.112,1.932-.147,1.219-.607,2.462-1.172,3.711-1.72-.065-.919-.118-1.832-.165-2.739-.277-.66-.542-1.32-.789-1.973.465-.625.937-1.249,1.4-1.873-.89-.071-1.773-.136-2.657-.189-.318-2-.106-4.053-.324-6.068.566-1.378,1.378-3.452,3.211-2.451,1.113-.183,2.239-.377,3.358-.566a5.423,5.423,0,0,0,2.292.483c-.571,2.009,1.691.99,2.321,2.3.218-.171.66-.512.884-.683.124.389.383,1.172.507,1.561l2-.283c1.384.306,1.814,1.814,2.48,2.875.518-.059,1.543-.183,2.056-.242-.371.677-.754,1.355-1.137,2.032-.018.412-.047,1.237-.065,1.649-1.373,1.231-2.633,2.686-4.389,3.393-.065.3-.194.913-.253,1.214-.353.477-.689.96-1.019,1.449,1.538.73,1.349,2.256.742,3.57.094.224.277.666.371.89a21.792,21.792,0,0,0-2.286,2.91c-1.2.613-2.392,1.214-3.552,1.891a14.011,14.011,0,0,0-4.7.837c-.094-.465-.283-1.384-.377-1.844-.124.295-.365.884-.489,1.178-1.066-.377-2.115-.789-3.169-1.178-1.219,1.644-3.028.436-4.595.106-2.321-.354-3.688-3.258-6.28-2.268a30.425,30.425,0,0,1-4.542-4.118c-.071-.312-.224-.931-.295-1.237a32.107,32.107,0,0,0-3.558-2.2c-.077-.736-.153-1.467-.236-2.191.212-.53.436-1.054.66-1.573a3.168,3.168,0,0,1-.082-2.256,15.781,15.781,0,0,0,1.938-1.879c1.037-.088,2.08-.177,3.128-.253.583-.666,1.166-1.331,1.767-1.979,0-.348-.006-1.043-.012-1.39-.348-.106-1.043-.312-1.39-.418-.077-.619-.147-1.231-.212-1.844.56-.542,1.125-1.072,1.708-1.6C696.681,545.4,696.764,544.763,696.852,544.133Z" transform="translate(-537.54 -428.939)" fill="#d2d7e5"/>
          <path id="Path_2895-2" data-name="Path 2895" d="M776.518,545.737q1.308-.548,2.621-1.107c.619.3,1.255.607,1.891.907,1.426-.059,2.857-.006,4.289.065-.13.448-.247.9-.359,1.349.6.442,1.214.9,1.82,1.367.465-.041,1.4-.124,1.873-.159.683.412,1.373.825,2.074,1.243-.212.477-.63,1.426-.837,1.9,1.6,1.5-.636,3.67.253,5.514-.7.619-1.4,1.237-2.062,1.9-1.178.448-2.362.884-3.558,1.261-.654-.948-1.808-.884-2.8-1-1.013,1.455-2.527,2.828-4.43,2.627a6.617,6.617,0,0,0-3.723,1.019c-.189-.636-.371-1.272-.554-1.9-.654.2-1.29.412-1.926.63-1.255-1.632-3.57-1.92-4.677-3.652-.324-1.243-.389-2.922.831-3.717-.106-.212-.324-.636-.43-.848.477-.736.96-1.473,1.431-2.209.677-.407,1.361-.807,2.044-1.208a8.04,8.04,0,0,1,4.059-1.6c.094-.183.283-.548.383-.73C775.322,546.839,775.929,546.3,776.518,545.737Z" transform="translate(-569.225 -429.831)" fill="#d2d7e5"/>
          <path id="Path_2900-2" data-name="Path 2900" d="M620.1,548.18c1.75-.866,3.741-.813,5.643-1.06a7.337,7.337,0,0,0,5.19,2.156c-.4.748-.825,1.478-1.219,2.233.966-.194,1.944-.377,2.928-.548A8.111,8.111,0,0,1,630.7,555.8c-1.16,1.125-1.526,3.228-.13,4.341-.389.571-.76,1.161-1.119,1.755a14.762,14.762,0,0,1,2.321,2.1c-.395.707-.784,1.42-1.172,2.133.913-.283,1.832-.566,2.745-.842a8.3,8.3,0,0,1-1.467,3.753c.713.353,1.649,1.284.7,2-1.343,1.337-3.211,1.915-4.742,2.987-.8.112-1.579.236-2.362.359.218-.719.448-1.432.683-2.144-1.178.33-2.351.689-3.517,1.037a10.316,10.316,0,0,0-.159-4.224c-1.119-.742-2.227-1.5-3.375-2.191-.112-1.031-.206-2.056-.295-3.081l-1.7.024a17.718,17.718,0,0,1,1.031-3.376c-.636-.542-1.261-1.09-1.879-1.626,1.09-2.321.96-4.907,1.172-7.393C618.263,550.283,619.294,549.323,620.1,548.18Z" transform="translate(-507.61 -430.854)" fill="#d2d7e5"/>
          <path id="Path_2906-2" data-name="Path 2906" d="M660.662,557.505c1.9-1.078,4.124-.954,6.233-1.125.065.854.153,1.726.236,2.586l1.808.259c.047.4.135,1.208.177,1.614-.389.118-1.166.359-1.555.483.035.7.083,1.4.13,2.109-.619.548-1.219,1.113-1.808,1.691a5.026,5.026,0,0,1,.406,3.882c.383.053,1.155.171,1.543.23-.047.342-.147,1.025-.194,1.367a5.55,5.55,0,0,0-2.215,3.629,21.619,21.619,0,0,0-3.664,2.038c-1.985-1.508-4.577-.406-6.645-1.626-1.208.542-3.511,3.163-4.171.8a9.607,9.607,0,0,1-3.423-2.215c.772-1.1,1.543-2.186,2.327-3.275a12.017,12.017,0,0,1,4.624-1.166,7.409,7.409,0,0,1,1.932-1.726,22.409,22.409,0,0,0,1.561-3.181c-.23-.89-.725-1.814-.448-2.739A25.55,25.55,0,0,0,660.662,557.505Z" transform="translate(-520.455 -434.659)" fill="#d2d7e5"/>
          <path id="Path_2917" data-name="Path 2917" d="M834.115,513.238a16.349,16.349,0,0,1,4.836-1.378c.931.1,1.437,1.031,2.121,1.573a17.61,17.61,0,0,1,4.831.948,8.131,8.131,0,0,1-.053,5l2.068.471a10.512,10.512,0,0,1-2,1.614c-.089.306-.259.931-.348,1.243-.247.153-.736.471-.984.624-1.537,2.51-3.788,5.054-6.922,5.266-4.206-.124-7.057,4.984-11.446,3.588a13.835,13.835,0,0,1-.831-4.076c-1.944-.406-.565-2.368-.448-3.605.312-.159.937-.477,1.249-.642.8-2.356-.106-5.048,1.437-7.2a44.119,44.119,0,0,1,5.508-4.159C833.384,512.685,833.873,513.056,834.115,513.238Z" transform="translate(-552.12 -388.365)" fill="#d2d7e5"/>
        </g>
      </g>
    </g>
    <g id="undraw_taking_selfie_lbo7" transform="translate(122 33)">
      <path id="Path_2958" data-name="Path 2958" d="M149.185,148.856,262.341,91.791,216.05,0,98.794,53.653Z" transform="translate(-76.906)" fill="#f2f2f2"/>
      <circle id="Ellipse_167" data-name="Ellipse 167" cx="6.923" cy="6.923" r="6.923" transform="translate(144.733 102.792)" fill="#738fec" opacity="0.4"/>
      <circle id="Ellipse_168" data-name="Ellipse 168" cx="4.857" cy="4.857" r="4.857" transform="translate(133.987 108.165)" fill="#738fec" opacity="0.4"/>
      <rect id="Rectangle_686" data-name="Rectangle 686" width="21.713" height="21.713" transform="translate(19.733 100.381) rotate(30)" fill="#f2f2f2"/>
      <path id="Path_2959" data-name="Path 2959" d="M755.392,395.239a4.874,4.874,0,1,1,4.874-4.874A4.874,4.874,0,0,1,755.392,395.239Zm0-9.305a4.431,4.431,0,1,0,4.431,4.431,4.431,4.431,0,0,0-4.431-4.431Z" transform="translate(-624.452 -324.783)" fill="#3f3d56"/>
      <path id="Path_2960" data-name="Path 2960" d="M378.392,332.239a4.874,4.874,0,1,1,4.874-4.874A4.874,4.874,0,0,1,378.392,332.239Zm0-9.305a4.431,4.431,0,1,0,4.431,4.431,4.431,4.431,0,0,0-4.431-4.431Z" transform="translate(-330.979 -275.741)" fill="#3f3d56"/>
      <path id="Path_2961" data-name="Path 2961" d="M291.392,681.239a4.874,4.874,0,1,1,4.874-4.874A4.874,4.874,0,0,1,291.392,681.239Zm0-9.305a4.431,4.431,0,1,0,4.431,4.431A4.431,4.431,0,0,0,291.392,671.933Z" transform="translate(-263.254 -547.418)" fill="#3f3d56"/>
      <ellipse id="Ellipse_169" data-name="Ellipse 169" cx="7.533" cy="4.542" rx="7.533" ry="4.542" transform="translate(61.168 54.122) rotate(-48.312)" fill="#2f2e41"/>
      <circle id="Ellipse_170" data-name="Ellipse 170" cx="19.719" cy="19.719" r="19.719" transform="translate(64.141 45.757)" fill="#2f2e41"/>
      <path id="Path_2962" data-name="Path 2962" d="M223.343,367.753l-18.328,1.5a3.033,3.033,0,0,0-2.777,2.8l-.684,9.444a3.033,3.033,0,0,0,3.025,3.252h8.261v.443h3.323v-.443h1.772v.443h3.323v-.443h1.772a3.033,3.033,0,0,0,3.029-2.877l.561-10.944a3.033,3.033,0,0,0-3.276-3.178Z" transform="translate(-197.108 -310.968)" fill="#2f2e41"/>
      <path id="Path_2963" data-name="Path 2963" d="M245.092,459.7,219.17,447.513l-4.653,7.311s13.479,8.6,14.18,9.305c1,1,11.743,7.976,15.952,6.868S246.865,460.807,245.092,459.7Z" transform="translate(-207.206 -373.064)" fill="#fbbebe"/>
      <path id="Path_2964" data-name="Path 2964" d="M239.323,641.47,236,649h34.4l-2.5-7.976Z" transform="translate(-183.713 -499.003)" fill="#2f2e41"/>
      <path id="Path_2965" data-name="Path 2965" d="M527.1,462.74s1.329,7.311,0,8.2,8.862,11.743,8.862,11.743l4.21-3.766,1.329-8.641s-3.988-5.539-2.216-10.413S527.1,462.74,527.1,462.74Z" transform="translate(-450.439 -381.423)" fill="#fbbebe"/>
      <circle id="Ellipse_171" data-name="Ellipse 171" cx="14.18" cy="14.18" r="14.18" transform="translate(66.467 55.174)" fill="#fbbebe"/>
      <path id="Path_2966" data-name="Path 2966" d="M455.775,510.091s-5.539-8.419-8.641-9.084a22.415,22.415,0,0,0-7.755,0c-1.772.222-7.754-1.994-11.3-.443s0,19.719,0,19.719-3.988,23.263-2.216,29.246.443,7.09-.443,7.755,20.162,6.647,20.162,6.647h19.94s0-6.425,1.994-7.976,1.772-34.341,1.772-34.341l6.647-12.85s-1.108-4.874-5.76-5.1A21.76,21.76,0,0,1,461.37,501l-3.158,9.089Z" transform="translate(-371.362 -413.929)" fill="#738fec"/>
      <path id="Path_2967" data-name="Path 2967" d="M352.326,497.253l-1.994-1.108a29.21,29.21,0,0,1-4.431,0c-.665-.222-9.084-2.88-12.407-1.329a5.112,5.112,0,0,1-5.539-.443s10.856,9.305-2.437,12.186c0,0,.222,1.108,3.545,1.772s3.988,1.329,5.317,2.437a17.146,17.146,0,0,0,5.76,2.659c1.772.443,7.533,4.21,8.419,3.323A23.873,23.873,0,0,0,351,512.762Z" transform="translate(-293.613 -409.51)" fill="#738fec"/>
      <path id="Path_2968" data-name="Path 2968" d="M611.688,528.513l4.21,2.437s5.539,16.4,4.653,20.383-1.772,3.323-.443,5.982,2.659,2.88,1.772,5.317-.443,8.419-1.772,10.856-7.755,10.192-13.293-2.88S611.688,528.513,611.688,528.513Z" transform="translate(-511.323 -436.118)" fill="#738fec"/>
      <path id="Path_2969" data-name="Path 2969" d="M608.688,516.47s-3.1-6.2-3.766-6.647-3.766-15.731-3.766-15.731,4.874-7.976.443-11.521c0,0,8.2-11.521,5.539-11.3s-7.976,8.641-7.976,8.641-1.219-.332-.776-2.1,2.1-8.087.776-8.308-3.988,9.305-3.988,9.305-5.428,9.859-3.766,13.293a42.8,42.8,0,0,0,3.323,5.539l3.766,27.473S605.808,533.973,608.688,516.47Z" transform="translate(-500.346 -390.177)" fill="#fbbebe"/>
      <ellipse id="Ellipse_172" data-name="Ellipse 172" cx="2.437" cy="1.108" rx="2.437" ry="1.108" transform="translate(22.377 58.718)" fill="#738fec"/>
      <path id="Path_2970" data-name="Path 2970" d="M191.488,401.1h-3.1s-6.868-2.216-6.868-7.311,1.994-15.509,8.2-15.287.443,13.958.443,13.958l3.755,1.532.011,4.671Z" transform="translate(-181.517 -319.339)" fill="#fbbebe"/>
      <ellipse id="Ellipse_173" data-name="Ellipse 173" cx="12.629" cy="6.425" rx="12.629" ry="6.425" transform="translate(65.692 53.512)" fill="#2f2e41"/>
      <ellipse id="Ellipse_174" data-name="Ellipse 174" cx="1.108" cy="2.437" rx="1.108" ry="2.437" transform="translate(94.272 65.476)" fill="#fbbebe"/>
      <ellipse id="Ellipse_175" data-name="Ellipse 175" cx="4.542" cy="7.533" rx="4.542" ry="7.533" transform="translate(94.539 50.271) rotate(-25.902)" fill="#2f2e41"/>
    </g>
  </g>
</svg>
