<svg xmlns="http://www.w3.org/2000/svg" width="45" height="45" viewBox="0 0 45 45">
  <g id="Group_3127" data-name="Group 3127" transform="translate(-663 -294)">
    <path id="Path_2956" data-name="Path 2956" d="M24.477,2A22.5,22.5,0,1,0,47,24.5,22.489,22.489,0,0,0,24.477,2Z" transform="translate(661 292)" fill="#fff"/>
    <g id="ic_camp_remote_premoderation" transform="translate(-914 84)">
      <circle id="Ellipse_105" data-name="Ellipse 105" cx="22.5" cy="22.5" r="22.5" transform="translate(1577 210)" fill="#24b900"/>
      <path id="Exclusion_1" data-name="Exclusion 1" d="M13.046,31.15A15.62,15.62,0,0,1,0,18.107a15.723,15.723,0,0,0,13.048,13.04Zm4.9,0,0,0A15.7,15.7,0,0,0,31.112,16.916,15.623,15.623,0,0,1,17.95,31.147Zm.814-6.224a6.092,6.092,0,0,1-4.275-1.781l-1.781-1.781a.686.686,0,0,1,0-1l1-1a.688.688,0,0,1,1,0l1.781,1.781a3.112,3.112,0,0,0,2.209.926,3.177,3.177,0,0,0,3.135-3.135A3.1,3.1,0,0,0,20.9,16.73L19.12,14.949a.694.694,0,0,1,0-1l1-1a.691.691,0,0,1,1,0L22.9,14.736a6.009,6.009,0,0,1,1.781,4.274,5.675,5.675,0,0,1-1.655,4.111A6,6,0,0,1,18.764,24.923Zm-1.425-5.7a.7.7,0,0,1-.5-.213l-4.7-4.7a.686.686,0,0,1,0-1l1-1a.689.689,0,0,1,1,0l4.7,4.7a.69.69,0,0,1,0,1l-1,1A.707.707,0,0,1,17.339,19.223Zm-7.054-.641a.706.706,0,0,1-.5-.214l-1.78-1.781a6.009,6.009,0,0,1-1.781-4.274,6.021,6.021,0,0,1,5.984-5.985A6.094,6.094,0,0,1,16.484,8.11l1.78,1.781a.69.69,0,0,1,0,1l-1,1a.688.688,0,0,1-1,0L14.489,10.1a3.111,3.111,0,0,0-2.209-.926,3.177,3.177,0,0,0-3.134,3.135,3.111,3.111,0,0,0,.926,2.208L11.853,16.3a1.131,1.131,0,0,1-.071,1.07l-1,1A.706.706,0,0,1,10.285,18.583ZM0,13.211H0A15.623,15.623,0,0,1,14.849,0,15.7,15.7,0,0,0,0,13.211Zm30.965-.01A15.707,15.707,0,0,0,16.743.037,15.625,15.625,0,0,1,30.973,13.2Z" transform="translate(1583.995 216.861)" fill="#fff"/>
      <circle id="Ellipse_116" data-name="Ellipse 116" cx="15.963" cy="15.963" r="15.963" transform="translate(1583.537 216.537)" fill="none"/>
    </g>
  </g>
</svg>
